{
  "IsSuccess": true,
  "ErrCode": "",
  "ErrMsg": "",
  "pageNum" : "2",
  "pageSize" : "10",
  "ResponseData": [
    {
      "HIBERNATE_SORT_ROW": 2439.0,
      "INVH_SYS_ID": 13950.0,
      "INVH_NO": 2493.0,
      "INVH_DT": "16-Sep-2021",
      "INVH_DT_KEY": "20210916",
      "INVH_TM": "12:10 PM",
      "INVH_SERV_MODE": "TAKEAWAY",
      "INVH_DISP_NO": 2493.0,
      "INVH_PAY_TYPE": null,
      "INVH_POYNT_ID": "f0984031-0a1c-4569-9bb9-36ef9ffdb782",
      "INVH_NET_TOTAL": 0.0,
      "INVH_CANCEL_YN": "Y",
      "INVH_POYNT_STATUS": "CANCELLED",
      "INVH_CUR_CODE": "AED",
      "INVH_SM_CODE": "SM02",
      "INVH_SM_NAME": "Salesman 2",
      "INVH_RETN_COUNT": 0.0,
      "INVH_DELV_CHANNEL": null,
      "INVH_DELV_CHANNEL_NAME": " ",
      "INVH_TABLE_CODE": null,
      "INVH_TABLE_NAME": " "
    },
    {
      "HIBERNATE_SORT_ROW": 2438.0,
      "INVH_SYS_ID": 13947.0,
      "INVH_NO": 2492.0,
      "INVH_DT": "16-Sep-2021",
      "INVH_DT_KEY": "20210916",
      "INVH_TM": "11:15 AM",
      "INVH_SERV_MODE": "DINEIN",
      "INVH_DISP_NO": 2492.0,
      "INVH_PAY_TYPE": "CHEQUE",
      "INVH_POYNT_ID": "1f4b6ba6-a71d-4cf7-9c56-3521bd7c701a",
      "INVH_NET_TOTAL": 0.0,
      "INVH_CANCEL_YN": "Y",
      "INVH_POYNT_STATUS": "CANCELLED",
      "INVH_CUR_CODE": "AED",
      "INVH_SM_CODE": "S01",
      "INVH_SM_NAME": "Salesman 1",
      "INVH_RETN_COUNT": 1.0,
      "INVH_DELV_CHANNEL": null,
      "INVH_DELV_CHANNEL_NAME": " ",
      "INVH_TABLE_CODE": null,
      "INVH_TABLE_NAME": " "
    },
    {
      "HIBERNATE_SORT_ROW": 2437.0,
      "INVH_SYS_ID": 13945.0,
      "INVH_NO": 2491.0,
      "INVH_DT": "16-Sep-2021",
      "INVH_DT_KEY": "20210916",
      "INVH_TM": "11:03 AM",
      "INVH_SERV_MODE": "DINEIN",
      "INVH_DISP_NO": 2491.0,
      "INVH_PAY_TYPE": null,
      "INVH_POYNT_ID": "68bd0101-e277-4d63-8025-3fb557657c1e",
      "INVH_NET_TOTAL": 126.0,
      "INVH_CANCEL_YN": "Y",
      "INVH_POYNT_STATUS": "CANCELLED",
      "INVH_CUR_CODE": "AED",
      "INVH_SM_CODE": "S01",
      "INVH_SM_NAME": "Salesman 1",
      "INVH_RETN_COUNT": 0.0,
      "INVH_DELV_CHANNEL": null,
      "INVH_DELV_CHANNEL_NAME": " ",
      "INVH_TABLE_CODE": null,
      "INVH_TABLE_NAME": " "
    },
    {
      "HIBERNATE_SORT_ROW": 2436.0,
      "INVH_SYS_ID": 13944.0,
      "INVH_NO": 2490.0,
      "INVH_DT": "16-Sep-2021",
      "INVH_DT_KEY": "20210916",
      "INVH_TM": "11:01 AM",
      "INVH_SERV_MODE": "DINEIN",
      "INVH_DISP_NO": 2490.0,
      "INVH_PAY_TYPE": null,
      "INVH_POYNT_ID": "d91e6815-6bfb-4630-aeb2-7fdefa3d9075",
      "INVH_NET_TOTAL": 126.0,
      "INVH_CANCEL_YN": "Y",
      "INVH_POYNT_STATUS": "CANCELLED",
      "INVH_CUR_CODE": "AED",
      "INVH_SM_CODE": "SM02",
      "INVH_SM_NAME": "Salesman 2",
      "INVH_RETN_COUNT": 0.0,
      "INVH_DELV_CHANNEL": null,
      "INVH_DELV_CHANNEL_NAME": " ",
      "INVH_TABLE_CODE": "TBL 2",
      "INVH_TABLE_NAME": "Table 2"
    },
    {
      "HIBERNATE_SORT_ROW": 2435.0,
      "INVH_SYS_ID": 13943.0,
      "INVH_NO": 2489.0,
      "INVH_DT": "16-Sep-2021",
      "INVH_DT_KEY": "20210916",
      "INVH_TM": "10:58 AM",
      "INVH_SERV_MODE": "DINEIN",
      "INVH_DISP_NO": 2489.0,
      "INVH_PAY_TYPE": "CASH",
      "INVH_POYNT_ID": "6314677e-bbb9-4095-8707-fa84be18c3d3",
      "INVH_NET_TOTAL": 73.50,
      "INVH_CANCEL_YN": "Y",
      "INVH_POYNT_STATUS": "CANCELLED",
      "INVH_CUR_CODE": "AED",
      "INVH_SM_CODE": "SM02",
      "INVH_SM_NAME": "Salesman 2",
      "INVH_RETN_COUNT": 0.0,
      "INVH_DELV_CHANNEL": null,
      "INVH_DELV_CHANNEL_NAME": " ",
      "INVH_TABLE_CODE": "TBL39",
      "INVH_TABLE_NAME": "Table 39"
    },
    {
      "HIBERNATE_SORT_ROW": 2434.0,
      "INVH_SYS_ID": 13942.0,
      "INVH_NO": 2488.0,
      "INVH_DT": "16-Sep-2021",
      "INVH_DT_KEY": "20210916",
      "INVH_TM": "10:58 AM",
      "INVH_SERV_MODE": "DINEIN",
      "INVH_DISP_NO": 2488.0,
      "INVH_PAY_TYPE": "CHEQUE",
      "INVH_POYNT_ID": "d097d53a-87c9-4317-80d4-48dc5652a247",
      "INVH_NET_TOTAL": 147.0,
      "INVH_CANCEL_YN": "Y",
      "INVH_POYNT_STATUS": "CANCELLED",
      "INVH_CUR_CODE": "AED",
      "INVH_SM_CODE": "S01",
      "INVH_SM_NAME": "Salesman 1",
      "INVH_RETN_COUNT": 0.0,
      "INVH_DELV_CHANNEL": null,
      "INVH_DELV_CHANNEL_NAME": " ",
      "INVH_TABLE_CODE": null,
      "INVH_TABLE_NAME": " "
    },
    {
      "HIBERNATE_SORT_ROW": 2433.0,
      "INVH_SYS_ID": 13941.0,
      "INVH_NO": 2487.0,
      "INVH_DT": "16-Sep-2021",
      "INVH_DT_KEY": "20210916",
      "INVH_TM": "10:54 AM",
      "INVH_SERV_MODE": "DINEIN",
      "INVH_DISP_NO": 2487.0,
      "INVH_PAY_TYPE": null,
      "INVH_POYNT_ID": "6101d77e-8b11-49b3-8443-61aa8afc149a",
      "INVH_NET_TOTAL": 10500235.20,
      "INVH_CANCEL_YN": "Y",
      "INVH_POYNT_STATUS": "CANCELLED",
      "INVH_CUR_CODE": "AED",
      "INVH_SM_CODE": "SM02",
      "INVH_SM_NAME": "Salesman 2",
      "INVH_RETN_COUNT": 0.0,
      "INVH_DELV_CHANNEL": null,
      "INVH_DELV_CHANNEL_NAME": " ",
      "INVH_TABLE_CODE": "TBL12",
      "INVH_TABLE_NAME": "Table 12"
    },
    {
      "HIBERNATE_SORT_ROW": 2432.0,
      "INVH_SYS_ID": 13940.0,
      "INVH_NO": 2486.0,
      "INVH_DT": "16-Sep-2021",
      "INVH_DT_KEY": "20210916",
      "INVH_TM": "10:52 AM",
      "INVH_SERV_MODE": "DINEIN",
      "INVH_DISP_NO": 2486.0,
      "INVH_PAY_TYPE": null,
      "INVH_POYNT_ID": "57f39a80-1e81-464f-bb5a-35042a050091",
      "INVH_NET_TOTAL": 15.75,
      "INVH_CANCEL_YN": "Y",
      "INVH_POYNT_STATUS": "CANCELLED",
      "INVH_CUR_CODE": "AED",
      "INVH_SM_CODE": "SM02",
      "INVH_SM_NAME": "Salesman 2",
      "INVH_RETN_COUNT": 0.0,
      "INVH_DELV_CHANNEL": null,
      "INVH_DELV_CHANNEL_NAME": " ",
      "INVH_TABLE_CODE": "TBL35",
      "INVH_TABLE_NAME": "Table 35"
    },
    {
      "HIBERNATE_SORT_ROW": 2431.0,
      "INVH_SYS_ID": 13937.0,
      "INVH_NO": 2485.0,
      "INVH_DT": "16-Sep-2021",
      "INVH_DT_KEY": "20210916",
      "INVH_TM": "09:49 AM",
      "INVH_SERV_MODE": "DINEIN",
      "INVH_DISP_NO": 2485.0,
      "INVH_PAY_TYPE": "CHEQUE",
      "INVH_POYNT_ID": "d1aeb7c6-7f8b-4190-a9a6-193abb578778",
      "INVH_NET_TOTAL": 0.0,
      "INVH_CANCEL_YN": "Y",
      "INVH_POYNT_STATUS": "CANCELLED",
      "INVH_CUR_CODE": "AED",
      "INVH_SM_CODE": "S01",
      "INVH_SM_NAME": "Salesman 1",
      "INVH_RETN_COUNT": 1.0,
      "INVH_DELV_CHANNEL": null,
      "INVH_DELV_CHANNEL_NAME": " ",
      "INVH_TABLE_CODE": null,
      "INVH_TABLE_NAME": " "
    },
    {
      "HIBERNATE_SORT_ROW": 2430.0,
      "INVH_SYS_ID": 13936.0,
      "INVH_NO": 2484.0,
      "INVH_DT": "16-Sep-2021",
      "INVH_DT_KEY": "20210916",
      "INVH_TM": "09:48 AM",
      "INVH_SERV_MODE": "DINEIN",
      "INVH_DISP_NO": 2484.0,
      "INVH_PAY_TYPE": "CHEQUE",
      "INVH_POYNT_ID": "fcffdcd5-a499-4a95-ba65-59ccb4830f4d",
      "INVH_NET_TOTAL": 0.0,
      "INVH_CANCEL_YN": "Y",
      "INVH_POYNT_STATUS": "CANCELLED",
      "INVH_CUR_CODE": "AED",
      "INVH_SM_CODE": "S01",
      "INVH_SM_NAME": "Salesman 1",
      "INVH_RETN_COUNT": 0.0,
      "INVH_DELV_CHANNEL": null,
      "INVH_DELV_CHANNEL_NAME": " ",
      "INVH_TABLE_CODE": null,
      "INVH_TABLE_NAME": " "
    }
  ],
  "OtherData1": null,
  "OtherData2": null,
  "ReceetData": null,
  "MID": null,
  "TID": null
}