{
  "IsSuccess": true,
  "ErrCode": "",
  "ErrMsg": "",
  "pageNum" : "3",
  "pageSize" : "10",
  "ResponseData": [
   	{
      "HIBERNATE_SORT_ROW": 2429.0,
      "INVH_SYS_ID": 13931.0,
      "INVH_NO": 2480.0,
      "INVH_DT": "16-Sep-2021",
      "INVH_DT_KEY": "20210916",
      "INVH_TM": "09:29 AM",
      "INVH_SERV_MODE": "DINEIN",
      "INVH_DISP_NO": 2480.0,
      "INVH_PAY_TYPE": "CHEQUE",
      "INVH_POYNT_ID": "b3f3837d-71fb-4b36-8fd4-30cca4d928db",
      "INVH_NET_TOTAL": 0.0,
      "INVH_CANCEL_YN": "Y",
      "INVH_POYNT_STATUS": "CANCELLED",
      "INVH_CUR_CODE": "AED",
      "INVH_SM_CODE": "S01",
      "INVH_SM_NAME": "Salesman 1",
      "INVH_RETN_COUNT": 1.0,
      "INVH_DELV_CHANNEL": null,
      "INVH_DELV_CHANNEL_NAME": " ",
      "INVH_TABLE_CODE": null,
      "INVH_TABLE_NAME": " "
    },
    {
      "HIBERNATE_SORT_ROW": 2428.0,
      "INVH_SYS_ID": 13930.0,
      "INVH_NO": 2479.0,
      "INVH_DT": "16-Sep-2021",
      "INVH_DT_KEY": "20210916",
      "INVH_TM": "09:25 AM",
      "INVH_SERV_MODE": "TAKEAWAY",
      "INVH_DISP_NO": 2479.0,
      "INVH_PAY_TYPE": "CHEQUE",
      "INVH_POYNT_ID": "c6797c82-b272-4fd8-b246-93d535f19c39",
      "INVH_NET_TOTAL": 15.75,
      "INVH_CANCEL_YN": "Y",
      "INVH_POYNT_STATUS": "CANCELLED",
      "INVH_CUR_CODE": "AED",
      "INVH_SM_CODE": "SM02",
      "INVH_SM_NAME": "Salesman 2",
      "INVH_RETN_COUNT": 0.0,
      "INVH_DELV_CHANNEL": null,
      "INVH_DELV_CHANNEL_NAME": " ",
      "INVH_TABLE_CODE": null,
      "INVH_TABLE_NAME": " "
    },
    {
      "HIBERNATE_SORT_ROW": 2427.0,
      "INVH_SYS_ID": 13926.0,
      "INVH_NO": 2476.0,
      "INVH_DT": "16-Sep-2021",
      "INVH_DT_KEY": "20210916",
      "INVH_TM": "09:12 AM",
      "INVH_SERV_MODE": "TAKEAWAY",
      "INVH_DISP_NO": 2476.0,
      "INVH_PAY_TYPE": "CHEQUE",
      "INVH_POYNT_ID": "66fabe4b-45d9-473c-87b9-d3dfdd7100c1",
      "INVH_NET_TOTAL": 168.0,
      "INVH_CANCEL_YN": "Y",
      "INVH_POYNT_STATUS": "CANCELLED",
      "INVH_CUR_CODE": "AED",
      "INVH_SM_CODE": "SM02",
      "INVH_SM_NAME": "Salesman 2",
      "INVH_RETN_COUNT": 0.0,
      "INVH_DELV_CHANNEL": null,
      "INVH_DELV_CHANNEL_NAME": " ",
      "INVH_TABLE_CODE": null,
      "INVH_TABLE_NAME": " "
    },
    {
      "HIBERNATE_SORT_ROW": 2426.0,
      "INVH_SYS_ID": 13923.0,
      "INVH_NO": 2474.0,
      "INVH_DT": "16-Sep-2021",
      "INVH_DT_KEY": "20210916",
      "INVH_TM": "09:07 AM",
      "INVH_SERV_MODE": "TAKEAWAY",
      "INVH_DISP_NO": 2474.0,
      "INVH_PAY_TYPE": "CHEQUE",
      "INVH_POYNT_ID": "d8b44b2c-fe02-4b57-8b5c-14a74e6e9e5c",
      "INVH_NET_TOTAL": 105.0,
      "INVH_CANCEL_YN": "Y",
      "INVH_POYNT_STATUS": "CANCELLED",
      "INVH_CUR_CODE": "AED",
      "INVH_SM_CODE": "SM02",
      "INVH_SM_NAME": "Salesman 2",
      "INVH_RETN_COUNT": 0.0,
      "INVH_DELV_CHANNEL": null,
      "INVH_DELV_CHANNEL_NAME": " ",
      "INVH_TABLE_CODE": null,
      "INVH_TABLE_NAME": " "
    },
    {
      "HIBERNATE_SORT_ROW": 2425.0,
      "INVH_SYS_ID": 13922.0,
      "INVH_NO": 2473.0,
      "INVH_DT": "16-Sep-2021",
      "INVH_DT_KEY": "20210916",
      "INVH_TM": "09:05 AM",
      "INVH_SERV_MODE": "TAKEAWAY",
      "INVH_DISP_NO": 2473.0,
      "INVH_PAY_TYPE": null,
      "INVH_POYNT_ID": "298f2e19-0089-488a-9084-f8fca435a44b",
      "INVH_NET_TOTAL": 12.92,
      "INVH_CANCEL_YN": "Y",
      "INVH_POYNT_STATUS": "CANCELLED",
      "INVH_CUR_CODE": "AED",
      "INVH_SM_CODE": "SM02",
      "INVH_SM_NAME": "Salesman 2",
      "INVH_RETN_COUNT": 0.0,
      "INVH_DELV_CHANNEL": null,
      "INVH_DELV_CHANNEL_NAME": " ",
      "INVH_TABLE_CODE": null,
      "INVH_TABLE_NAME": " "
    },
    {
      "HIBERNATE_SORT_ROW": 2424.0,
      "INVH_SYS_ID": 13917.0,
      "INVH_NO": 2469.0,
      "INVH_DT": "16-Sep-2021",
      "INVH_DT_KEY": "20210916",
      "INVH_TM": "08:44 AM",
      "INVH_SERV_MODE": "DINEIN",
      "INVH_DISP_NO": 2469.0,
      "INVH_PAY_TYPE": null,
      "INVH_POYNT_ID": "b67f9895-e74d-4f05-bfa8-32900d9a5328",
      "INVH_NET_TOTAL": 131.25,
      "INVH_CANCEL_YN": "Y",
      "INVH_POYNT_STATUS": "CANCELLED",
      "INVH_CUR_CODE": "AED",
      "INVH_SM_CODE": "S01",
      "INVH_SM_NAME": "Salesman 1",
      "INVH_RETN_COUNT": 0.0,
      "INVH_DELV_CHANNEL": null,
      "INVH_DELV_CHANNEL_NAME": " ",
      "INVH_TABLE_CODE": null,
      "INVH_TABLE_NAME": " "
    },
    {
      "HIBERNATE_SORT_ROW": 2423.0,
      "INVH_SYS_ID": 13908.0,
      "INVH_NO": 2467.0,
      "INVH_DT": "16-Sep-2021",
      "INVH_DT_KEY": "20210916",
      "INVH_TM": "08:22 AM",
      "INVH_SERV_MODE": "DINEIN",
      "INVH_DISP_NO": 2467.0,
      "INVH_PAY_TYPE": "CQ",
      "INVH_POYNT_ID": "cf630e9c-f1c4-1a15-e053-0d03000a447d",
      "INVH_NET_TOTAL": 131.25,
      "INVH_CANCEL_YN": "Y",
      "INVH_POYNT_STATUS": "CANCELLED",
      "INVH_CUR_CODE": "AED",
      "INVH_SM_CODE": "SM02",
      "INVH_SM_NAME": "Salesman 2",
      "INVH_RETN_COUNT": 0.0,
      "INVH_DELV_CHANNEL": null,
      "INVH_DELV_CHANNEL_NAME": " ",
      "INVH_TABLE_CODE": "TBL21",
      "INVH_TABLE_NAME": "Table 21"
    },
    {
      "HIBERNATE_SORT_ROW": 2422.0,
      "INVH_SYS_ID": 13907.0,
      "INVH_NO": 2466.0,
      "INVH_DT": "16-Sep-2021",
      "INVH_DT_KEY": "20210916",
      "INVH_TM": "08:04 AM",
      "INVH_SERV_MODE": "DINEIN",
      "INVH_DISP_NO": 2466.0,
      "INVH_PAY_TYPE": "CQ",
      "INVH_POYNT_ID": "cf62cd2c-9820-1a09-e053-0d03000ab33d",
      "INVH_NET_TOTAL": 131.25,
      "INVH_CANCEL_YN": "Y",
      "INVH_POYNT_STATUS": "CANCELLED",
      "INVH_CUR_CODE": "AED",
      "INVH_SM_CODE": "SM02",
      "INVH_SM_NAME": "Salesman 2",
      "INVH_RETN_COUNT": 0.0,
      "INVH_DELV_CHANNEL": null,
      "INVH_DELV_CHANNEL_NAME": " ",
      "INVH_TABLE_CODE": "TBL21",
      "INVH_TABLE_NAME": "Table 21"
    },
    {
      "HIBERNATE_SORT_ROW": 2421.0,
      "INVH_SYS_ID": 13901.0,
      "INVH_NO": 2465.0,
      "INVH_DT": "16-Sep-2021",
      "INVH_DT_KEY": "20210916",
      "INVH_TM": "03:39 PM",
      "INVH_SERV_MODE": "DINEIN",
      "INVH_DISP_NO": 2465.0,
      "INVH_PAY_TYPE": null,
      "INVH_POYNT_ID": "4d0a2a76-093f-4e2a-b492-76c1e2989d00",
      "INVH_NET_TOTAL": 147.0,
      "INVH_CANCEL_YN": "Y",
      "INVH_POYNT_STATUS": "CANCELLED",
      "INVH_CUR_CODE": "AED",
      "INVH_SM_CODE": "SM02",
      "INVH_SM_NAME": "Salesman 2",
      "INVH_RETN_COUNT": 0.0,
      "INVH_DELV_CHANNEL": null,
      "INVH_DELV_CHANNEL_NAME": " ",
      "INVH_TABLE_CODE": "TBL37",
      "INVH_TABLE_NAME": "Table 37"
    },
    {
      "HIBERNATE_SORT_ROW": 2420.0,
      "INVH_SYS_ID": 13900.0,
      "INVH_NO": 2464.0,
      "INVH_DT": "16-Sep-2021",
      "INVH_DT_KEY": "20210916",
      "INVH_TM": "03:36 PM",
      "INVH_SERV_MODE": "TAKEAWAY",
      "INVH_DISP_NO": 2464.0,
      "INVH_PAY_TYPE": "CHEQUE",
      "INVH_POYNT_ID": "9f063fff-587c-4968-9a5a-9ce03dd89fcb",
      "INVH_NET_TOTAL": 147.0,
      "INVH_CANCEL_YN": "Y",
      "INVH_POYNT_STATUS": "CANCELLED",
      "INVH_CUR_CODE": "AED",
      "INVH_SM_CODE": "SM02",
      "INVH_SM_NAME": "Salesman 2",
      "INVH_RETN_COUNT": 0.0,
      "INVH_DELV_CHANNEL": null,
      "INVH_DELV_CHANNEL_NAME": " ",
      "INVH_TABLE_CODE": null,
      "INVH_TABLE_NAME": " "
    }
  ],
  "OtherData1": null,
  "OtherData2": null,
  "ReceetData": null,
  "MID": null,
  "TID": null
}